﻿TABLA_2011,COLUMNA_2011,TABLA_2019,COLUMNA_2019,,
MOD_A_ID_HOGAR_Tipico,ORDEN,hogar,Id_Hogar,,
MOD_A_ID_HOGAR_Tipico,MUN,hogar,municipio,,
MOD_A_ID_HOGAR_Tipico,PREDIO,hogar,predio,,
MOD_A_ID_HOGAR_Tipico,IDM,hogar,,,
MOD_A_ID_HOGAR_Tipico,DIA,hogar,EXTRACT(DOW FROM p5_fecha),,
MOD_A_ID_HOGAR_Tipico,DIA_MES,hogar,EXTRACT(DAY FROM p5_fecha),,
MOD_A_ID_HOGAR_Tipico,MES,hogar,EXTRACT(MONTH FROM p5_fecha),,
MOD_A_ID_HOGAR_Tipico,LOCALIDA,hogar,localidad,,
MOD_A_ID_HOGAR_Tipico,UPZ,hogar,upz,,
MOD_A_ID_HOGAR_Tipico,ESTRATO,hogar,p5_estrato,,
MOD_A_ID_HOGAR_Tipico,BARRIO,hogar,p7_Barrio_vivienda,,
MOD_A_ID_HOGAR_Tipico,DIR_CASA,hogar,p6_direccion_vivienda,,
MOD_A_ID_HOGAR_Tipico,ZAT,hogar,zat_hogar,,
MOD_A_ID_HOGAR_Tipico,NOMBRE,hogar,p1_nombre_informante,,
MOD_A_ID_HOGAR_Tipico,TEL_1,hogar,p2_telefono1_contacto,,
MOD_A_ID_HOGAR_Tipico,TEL_2,hogar,p2_telefono2_contacto,,
MOD_A_ID_HOGAR_Tipico,TEL_3,hogar,p2_telefono3_contacto,,
MOD_A_ID_HOGAR_Tipico,P3_A,hogar,p3_id_tipo_vivienda,,
MOD_A_ID_HOGAR_Tipico,P4_A,hogar,p6_hogares_vivienda,,
MOD_A_ID_HOGAR_Tipico,P5_A,hogar,p7_total_personas,,
MOD_A_ID_HOGAR_Tipico,P6_A,hogar,p8_mayores_cinco_anios,,
MOD_A_ID_HOGAR_Tipico,P7_A,hogar,p4_id_vivienda_propia,,
MOD_A_ID_HOGAR_Tipico,VEH_01C,hogar,p1mc_automovil,,
MOD_A_ID_HOGAR_Tipico,VEH_02C,hogar,p1mc_camionetas,,
MOD_A_ID_HOGAR_Tipico,VEH_03C,hogar,p1mc_pickup,,
MOD_A_ID_HOGAR_Tipico,VEH_04C,hogar,p1mc_motocicleta,,
MOD_A_ID_HOGAR_Tipico,VEH_05C,hogar,p1mc_taxi,,
MOD_A_ID_HOGAR_Tipico,VEH_06C,hogar,p1mc_camion,,
MOD_A_ID_HOGAR_Tipico,VEH_07C,hogar,p1mc_bicicleta_motor,,
MOD_A_ID_HOGAR_Tipico,VEH_08C,hogar,p1mc_bicicleta_ninos,,
MOD_A_ID_HOGAR_Tipico,VEH_09C,hogar,p1mc_bicicleta_sin_motor,,
MOD_A_ID_HOGAR_Tipico,VEH_10C,hogar,p1mc_vehiculo_traccion_animal,,
MOD_A_ID_HOGAR_Tipico,VEH_OTRC,hogar,p1mc_otro,,
MOD_A_ID_HOGAR_Tipico,VERBAVEH,hogar,p1mc_otros_cual,,
MOD_A_ID_HOGAR_Tipico,NVEH,,,,
MOD_A_ID_HOGAR_Tipico,INGRESO,hogar,id_rango_ingresos,,
MOD_A_ID_HOGAR_Tipico,NVISITA,,,,
MOD_A_ID_HOGAR_Tipico,C_RESULT,,,,
MOD_A_ID_HOGAR_Tipico,TIPOSUP,,,,
MOD_A_ID_HOGAR_Tipico,ENCTADOR,,,,
MOD_A_ID_HOGAR_Tipico,SUPERV,,,,
MOD_A_ID_HOGAR_Tipico,DIGITA,,,,
MOD_A_ID_HOGAR_Tipico,CODIF,,,,
MOD_A_ID_HOGAR_Tipico,CORTE,,,,
MOD_A_ID_HOGAR_Tipico,F_EXP,hogar,f_exp,,
,,,,,
MOD_B_PERSONAS_Tipico,ORDEN,personas,id_hogar,,
MOD_B_PERSONAS_Tipico,ID_PERSO,personas,id_persona,,
MOD_B_PERSONAS_Tipico,P3_B,personas,p3_id_parentesco_jh,,
MOD_B_PERSONAS_Tipico,P4_B,,,,
MOD_B_PERSONAS_Tipico,P5_B,personas,p4_edad,,
MOD_B_PERSONAS_Tipico,P6_B,personas,p5_id_nivel_educativo,,
MOD_B_PERSONAS_Tipico,P7_B,personas,p6_id_ocupacion,,
MOD_B_PERSONAS_Tipico,P8_B,personas,p6_id_ocupacion_O1,,
MOD_B_PERSONAS_Tipico,P9_B,personas,p7_id_actividad_economica,,
MOD_B_PERSONAS_Tipico,P10_B,,,,
MOD_B_PERSONAS_Tipico,P11_B,personas,p9_id_dificultad_medios_transporte_,1,13
MOD_B_PERSONAS_Tipico,P12_B,personas,p8_id_dificultad_fisica_,1,7
MOD_B_PERSONAS_Tipico,P13_B,personas,p10_Licencia_conduccion_,1,4
MOD_B_PERSONAS_Tipico,P14_B,personas,p13_realizo_desplazamiento,,
MOD_B_PERSONAS_Tipico,P15_B,personas,p14_se_encuentra_hogar,,
MOD_B_PERSONAS_Tipico,P16_B,personas,p15_responde_viajes,,
MOD_B_PERSONAS_Tipico,P17_B,personas,p16_cuantos_viajes,,
MOD_B_PERSONAS_Tipico,P2_MUJER,,,sobre agresión a la mujer,
MOD_B_PERSONAS_Tipico,P3_MUJER,,,sobre agresión a la mujer,
MOD_B_PERSONAS_Tipico,P4_MUJER,,,sobre agresión a la mujer,
MOD_B_PERSONAS_Tipico,P5_MUJER,,,sobre agresión a la mujer,
MOD_B_PERSONAS_Tipico,P6_MUJER,,,sobre agresión a la mujer,
MOD_B_PERSONAS_Tipico,P7_MUJER,,,sobre agresión a la mujer,
MOD_B_PERSONAS_Tipico,P5DIA_D,,,,
MOD_B_PERSONAS_Tipico,P5MES_D,,,,
MOD_B_PERSONAS_Tipico,P5ANO_D,,,,
MOD_B_PERSONAS_Tipico,P6DIR_D,personas,,,
MOD_B_PERSONAS_Tipico,P6TDIR_D,,,,
MOD_B_PERSONAS_Tipico,ZAT,,,,
MOD_B_PERSONAS_Tipico,BARRIO_D,personas,p8v_barrio_vereda,,
MOD_B_PERSONAS_Tipico,MUN_D,personas,p9v_id_municipio,p9v_municipio,
MOD_B_PERSONAS_Tipico,P9HI_D,personas,EXTRACT(HOUR FROM p10v_hora_salida),,
MOD_B_PERSONAS_Tipico,P9MI_D,personas,EXTRACT(MINUTE FROM p10v_hora_salida),,
MOD_B_PERSONAS_Tipico,P10_D,personas,p11v_condujo_vehiculo,,
MOD_B_PERSONAS_Tipico,P11_D,personas_motivo_no_conduce_auto,id_motivo_auto,conservar id_hogar e id_persona,
MOD_B_PERSONAS_Tipico,HORARIO,,,,
MOD_B_PERSONAS_Tipico,VIAJE00M,personas,p10v_hora_salida,Revisar bien,
MOD_B_PERSONAS_Tipico,VIAJE01M,viaje,p36_hora_salida,viaje 1,
MOD_B_PERSONAS_Tipico,VIAJE02M,viaje,p36_hora_salida,viaje 2,
MOD_B_PERSONAS_Tipico,VIAJE03M,viaje,p36_hora_salida,viaje 3,
MOD_B_PERSONAS_Tipico,VIAJE04M,viaje,p36_hora_salida,viaje 4,
MOD_B_PERSONAS_Tipico,VIAJE05M,viaje,p36_hora_salida,viaje 5,
MOD_B_PERSONAS_Tipico,VIAJE06M,viaje,p36_hora_salida,viaje 6,
MOD_B_PERSONAS_Tipico,VIAJE07M,viaje,p36_hora_salida,viaje 7,
MOD_B_PERSONAS_Tipico,VIAJE08M,viaje,p36_hora_salida,viaje 8,
MOD_B_PERSONAS_Tipico,VIAJE09M,viaje,p36_hora_salida,viaje 9,
MOD_B_PERSONAS_Tipico,VIAJE10M,viaje,p36_hora_salida,viaje 10,
MOD_B_PERSONAS_Tipico,VIAJE11M,viaje,p36_hora_salida,viaje 11,
MOD_B_PERSONAS_Tipico,VIAJE12M,viaje,p36_hora_salida,viaje 12,
MOD_B_PERSONAS_Tipico,VIAJE13M,viaje,p36_hora_salida,viaje 13,
MOD_B_PERSONAS_Tipico,VIAJE14M,viaje,p36_hora_salida,viaje 14,
MOD_B_PERSONAS_Tipico,VIAJE15M,viaje,p36_hora_salida,viaje 15,
MOD_B_PERSONAS_Tipico,F_EXP,personas,f_exp,,
,,,,,
MOD_C_VEHICULOS_Tipico,ORDEN,vehiculos,id_hogar,,
MOD_C_VEHICULOS_Tipico,P2_C,vehiculos,p2_id_vehiculo,,
MOD_C_VEHICULOS_Tipico,P3_C,vehiculos,p3_id_tipo_vehiculo,,
MOD_C_VEHICULOS_Tipico,P4_C,vehiculos,p4_combustible,,
MOD_C_VEHICULOS_Tipico,P5_C,vehiculos,p5_id_municipio,p5_municipio,
MOD_C_VEHICULOS_Tipico,P6_C,vehiculos,p8_propietario,,
MOD_C_VEHICULOS_Tipico,P7_C,vehiculos,p6_pico_placa,,
MOD_C_VEHICULOS_Tipico,P8_C,,,,
MOD_C_VEHICULOS_Tipico,P9_C,vehiculos,p9_estacion_noche,En 2011 no se aclara que sea estacionamiento nocturno,
MOD_C_VEHICULOS_Tipico,P10_C,vehiculos,p10_pago_mensual,,
MOD_C_VEHICULOS_Tipico,F_EXP,vehiculos,f_exp,,
,,,,,
MOD_D_VIAJES_Tipico,ORDEN,viaje,id_hogar,,
MOD_D_VIAJES_Tipico,ID_PERSO,viaje,id_persona,,
MOD_D_VIAJES_Tipico,P12_D,viaje,id_viaje,,
MOD_D_VIAJES_Tipico,P13_D,viaje,p17_Id_motivo_viaje,,
MOD_D_VIAJES_Tipico,P14_D,,,,
MOD_D_VIAJES_Tipico,E1_P1_D,etapa_viaje,p18_id_medio_transporte,etapa 1,
MOD_D_VIAJES_Tipico,E1_P2C_D,etapa_viaje,p19_camino_cuadras,etapa 1,
MOD_D_VIAJES_Tipico,E1_P2M_D,etapa_viaje,p19_camino_minutos,etapa 1,
MOD_D_VIAJES_Tipico,E1_P3_D,etapa_viaje,p21_tiempo_arrancar_vehic,etapa 1,
MOD_D_VIAJES_Tipico,E1_P4_D,etapa_viaje,p22_cuanto_pago,etapa 1,
MOD_D_VIAJES_Tipico,E1_P5_D,etapa_viaje,p20_Estacion_abordo_vehic,etapa 1,
MOD_D_VIAJES_Tipico,E1_P6_D,etapa_viaje,p26a_propiedad_vehiculo,etapa 1,
MOD_D_VIAJES_Tipico,E1_P7A_D,etapa_viaje,p26b_estacion_vehiculo,etapa 1,
MOD_D_VIAJES_Tipico,E1_P7B_D,etapa_viaje,p26c_pago_estacionamiento,etapa 1,
MOD_D_VIAJES_Tipico,E1_P7C_D,etapa_viaje,p26d_modalidad_pago,etapa 1,
MOD_D_VIAJES_Tipico,E1_P8T_D,,,,
MOD_D_VIAJES_Tipico,E1_P8_D,etapa_viaje,p25_lugar_descenso,etapa 1,
MOD_D_VIAJES_Tipico,E1_P9_D,,,,
MOD_D_VIAJES_Tipico,E2_P1_D,etapa_viaje,p18_id_medio_transporte,etapa 2,
MOD_D_VIAJES_Tipico,E2_P2C_D,etapa_viaje,p19_camino_cuadras,etapa 2,
MOD_D_VIAJES_Tipico,E2_P2M_D,etapa_viaje,p19_camino_minutos,etapa 2,
MOD_D_VIAJES_Tipico,E2_P3_D,etapa_viaje,p21_tiempo_arrancar_vehic,etapa 2,
MOD_D_VIAJES_Tipico,E2_P4_D,etapa_viaje,p22_cuanto_pago,etapa 2,
MOD_D_VIAJES_Tipico,E2_P5_D,etapa_viaje,p20_Estacion_abordo_vehic,etapa 2,
MOD_D_VIAJES_Tipico,E2_P6_D,etapa_viaje,p26a_propiedad_vehiculo,etapa 2,
MOD_D_VIAJES_Tipico,E2_P7A_D,etapa_viaje,p26b_estacion_vehiculo,etapa 2,
MOD_D_VIAJES_Tipico,E2_P7B_D,etapa_viaje,p26c_pago_estacionamiento,etapa 2,
MOD_D_VIAJES_Tipico,E2_P7C_D,etapa_viaje,p26d_modalidad_pago,etapa 2,
MOD_D_VIAJES_Tipico,E2_P8T_D,,,,
MOD_D_VIAJES_Tipico,E2_P8_D,etapa_viaje,p25_lugar_descenso,etapa 2,
MOD_D_VIAJES_Tipico,E2_P9_D,,,,
MOD_D_VIAJES_Tipico,E3_P1_D,etapa_viaje,p18_id_medio_transporte,etapa 3,
MOD_D_VIAJES_Tipico,E3_P2C_D,etapa_viaje,p19_camino_cuadras,etapa 3,
MOD_D_VIAJES_Tipico,E3_P2M_D,etapa_viaje,p19_camino_minutos,etapa 3,
MOD_D_VIAJES_Tipico,E3_P3_D,etapa_viaje,p21_tiempo_arrancar_vehic,etapa 3,
MOD_D_VIAJES_Tipico,E3_P4_D,etapa_viaje,p22_cuanto_pago,etapa 3,
MOD_D_VIAJES_Tipico,E3_P5_D,etapa_viaje,p20_Estacion_abordo_vehic,etapa 3,
MOD_D_VIAJES_Tipico,E3_P6_D,etapa_viaje,p26a_propiedad_vehiculo,etapa 3,
MOD_D_VIAJES_Tipico,E3_P7A_D,etapa_viaje,p26b_estacion_vehiculo,etapa 3,
MOD_D_VIAJES_Tipico,E3_P7B_D,etapa_viaje,p26c_pago_estacionamiento,etapa 3,
MOD_D_VIAJES_Tipico,E3_P7C_D,etapa_viaje,p26d_modalidad_pago,etapa 3,
MOD_D_VIAJES_Tipico,E3_P8T_D,,,,
MOD_D_VIAJES_Tipico,E3_P8_D,etapa_viaje,p25_lugar_descenso,etapa 3,
MOD_D_VIAJES_Tipico,E3_P9_D,,,,
MOD_D_VIAJES_Tipico,E4_P1_D,etapa_viaje,p18_id_medio_transporte,etapa 4,
MOD_D_VIAJES_Tipico,E4_P2C_D,etapa_viaje,p19_camino_cuadras,etapa 4,
MOD_D_VIAJES_Tipico,E4_P2M_D,etapa_viaje,p19_camino_minutos,etapa 4,
MOD_D_VIAJES_Tipico,E4_P3_D,etapa_viaje,p21_tiempo_arrancar_vehic,etapa 4,
MOD_D_VIAJES_Tipico,E4_P4_D,etapa_viaje,p22_cuanto_pago,etapa 4,
MOD_D_VIAJES_Tipico,E4_P5_D,etapa_viaje,p20_Estacion_abordo_vehic,etapa 4,
MOD_D_VIAJES_Tipico,E4_P6_D,etapa_viaje,p26a_propiedad_vehiculo,etapa 4,
MOD_D_VIAJES_Tipico,E4_P7A_D,etapa_viaje,p26b_estacion_vehiculo,etapa 4,
MOD_D_VIAJES_Tipico,E4_P7B_D,etapa_viaje,p26c_pago_estacionamiento,etapa 4,
MOD_D_VIAJES_Tipico,E4_P7C_D,etapa_viaje,p26d_modalidad_pago,etapa 4,
MOD_D_VIAJES_Tipico,E4_P8T_D,,,,
MOD_D_VIAJES_Tipico,E4_P8_D,etapa_viaje,p25_lugar_descenso,etapa 4,
MOD_D_VIAJES_Tipico,E4_P9_D,,,,
MOD_D_VIAJES_Tipico,E5_P1_D,etapa_viaje,p18_id_medio_transporte,etapa 5,
MOD_D_VIAJES_Tipico,E5_P2C_D,etapa_viaje,p19_camino_cuadras,etapa 5,
MOD_D_VIAJES_Tipico,E5_P2M_D,etapa_viaje,p19_camino_minutos,etapa 5,
MOD_D_VIAJES_Tipico,E5_P3_D,etapa_viaje,p21_tiempo_arrancar_vehic,etapa 5,
MOD_D_VIAJES_Tipico,E5_P4_D,etapa_viaje,p22_cuanto_pago,etapa 5,
MOD_D_VIAJES_Tipico,E5_P5_D,etapa_viaje,p20_Estacion_abordo_vehic,etapa 5,
MOD_D_VIAJES_Tipico,E5_P6_D,etapa_viaje,p26a_propiedad_vehiculo,etapa 5,
MOD_D_VIAJES_Tipico,E5_P7A_D,etapa_viaje,p26b_estacion_vehiculo,etapa 5,
MOD_D_VIAJES_Tipico,E5_P7B_D,etapa_viaje,p26c_pago_estacionamiento,etapa 5,
MOD_D_VIAJES_Tipico,E5_P7C_D,etapa_viaje,p26d_modalidad_pago,etapa 5,
MOD_D_VIAJES_Tipico,E5_P8T_D,,,,
MOD_D_VIAJES_Tipico,E5_P8_D,etapa_viaje,p25_lugar_descenso,etapa 5,
MOD_D_VIAJES_Tipico,E5_P9_D,,,,
MOD_D_VIAJES_Tipico,P15_D,viaje,p28_lugar_destino,,
MOD_D_VIAJES_Tipico,P15TD_D,,,,
MOD_D_VIAJES_Tipico,ZAT,,,,
MOD_D_VIAJES_Tipico,P16_D,viaje,p29_id_municipio,,
MOD_D_VIAJES_Tipico,P17C_D,viaje,p30_camino_cuadras,,
MOD_D_VIAJES_Tipico,P17M_D,viaje,p30_camino_minutos,,
MOD_D_VIAJES_Tipico,P18HF_D,viaje,EXTRACT(HOUR FROM p31_hora_llegada),,
MOD_D_VIAJES_Tipico,P18MF_D,viaje,EXTRACT(MINUTE FROM p31_hora_llegada),,
MOD_D_VIAJES_Tipico,P19HI_D,viaje,EXTRACT(HOUR FROM p36_hora_salida),,
MOD_D_VIAJES_Tipico,P19MI_D,viaje,EXTRACT(MINUTE FROM p36_hora_salida),,
MOD_D_VIAJES_Tipico,F_EXP,,f_exp,,
AUX_OCUPACION,,ocupacion,,,
AUX_CATEGORIASLIMITACIONES_MEDIOSTRANSPORTE,,personas,p9_id_dificultad_medios_transporte_,1,
AUX_CODIGOS_LIMITACIONESFISICAS,,personas,p8_id_dificultad_fisica_,1,
FRM_LSTVL_P13_B,,personas,p10_Licencia_conduccion_,1,
AUX_MUNICIPIOSMATRICULAVEHICULOS,,vehiculos,p5_id_municipio,p5_municipio,
AUX_RANGOS_COSTOMENSUALESTACIONAMIENTO,,vehiculos,p10_pago_mensual,,
MOD_D_VIAJES2_BASEIMPUTACION_DEFINITIVA,ORDEN,viaje,id_hogar,,
MOD_D_VIAJES2_BASEIMPUTACION_DEFINITIVA,ID_PERSO,viaje,id_persona,,
MOD_D_VIAJES2_BASEIMPUTACION_DEFINITIVA,P12_D,viaje,id_viaje,,
MOD_D_VIAJES2_BASEIMPUTACION_DEFINITIVA,P13_D,viaje,p17_Id_motivo_viaje,,
MOD_D_VIAJES2_BASEIMPUTACION_DEFINITIVA,P14_D,,,,
MOD_D_VIAJES2_BASEIMPUTACION_DEFINITIVA,E1_P1_D,etapa_viaje,p18_id_medio_transporte,,
MOD_D_VIAJES2_BASEIMPUTACION_DEFINITIVA,E1_P2C_D,etapa_viaje,p19_camino_cuadras,,
MOD_D_VIAJES2_BASEIMPUTACION_DEFINITIVA,E1_P2M_D,etapa_viaje,p19_camino_minutos,,
MOD_D_VIAJES2_BASEIMPUTACION_DEFINITIVA,E1_P3_D,etapa_viaje,p21_tiempo_arrancar_vehic,,
MOD_D_VIAJES2_BASEIMPUTACION_DEFINITIVA,E1_P4_D,etapa_viaje,p22_cuanto_pago,,
MOD_D_VIAJES2_BASEIMPUTACION_DEFINITIVA,E1_P5_D,etapa_viaje,p20_Estacion_abordo_vehic,,
MOD_D_VIAJES2_BASEIMPUTACION_DEFINITIVA,E1_P6_D,etapa_viaje,p26a_propiedad_vehiculo,,
MOD_D_VIAJES2_BASEIMPUTACION_DEFINITIVA,E1_P7A_D,etapa_viaje,p26b_estacion_vehiculo,,
MOD_D_VIAJES2_BASEIMPUTACION_DEFINITIVA,E1_P7B_D,etapa_viaje,p26c_pago_estacionamiento,,
MOD_D_VIAJES2_BASEIMPUTACION_DEFINITIVA,E1_P7C_D,etapa_viaje,p26d_modalidad_pago,,
MOD_D_VIAJES2_BASEIMPUTACION_DEFINITIVA,E1_P8T_D,,,,
MOD_D_VIAJES2_BASEIMPUTACION_DEFINITIVA,E1_P8_D,etapa_viaje,p25_lugar_descenso,,
MOD_D_VIAJES2_BASEIMPUTACION_DEFINITIVA,E1_P9_D,,,,
MOD_D_VIAJES2_BASEIMPUTACION_DEFINITIVA,E2_P1_D,etapa_viaje,p18_id_medio_transporte,,
MOD_D_VIAJES2_BASEIMPUTACION_DEFINITIVA,E2_P2C_D,etapa_viaje,p19_camino_cuadras,,
MOD_D_VIAJES2_BASEIMPUTACION_DEFINITIVA,E2_P2M_D,etapa_viaje,p19_camino_minutos,,
MOD_D_VIAJES2_BASEIMPUTACION_DEFINITIVA,E2_P3_D,etapa_viaje,p21_tiempo_arrancar_vehic,,
MOD_D_VIAJES2_BASEIMPUTACION_DEFINITIVA,E2_P4_D,etapa_viaje,p22_cuanto_pago,,
MOD_D_VIAJES2_BASEIMPUTACION_DEFINITIVA,E2_P5_D,etapa_viaje,p20_Estacion_abordo_vehic,,
MOD_D_VIAJES2_BASEIMPUTACION_DEFINITIVA,E2_P6_D,etapa_viaje,p26a_propiedad_vehiculo,,
MOD_D_VIAJES2_BASEIMPUTACION_DEFINITIVA,E2_P7A_D,etapa_viaje,p26b_estacion_vehiculo,,
MOD_D_VIAJES2_BASEIMPUTACION_DEFINITIVA,E2_P7B_D,etapa_viaje,p26c_pago_estacionamiento,,
MOD_D_VIAJES2_BASEIMPUTACION_DEFINITIVA,E2_P7C_D,etapa_viaje,p26d_modalidad_pago,,
MOD_D_VIAJES2_BASEIMPUTACION_DEFINITIVA,E2_P8T_D,,,,
MOD_D_VIAJES2_BASEIMPUTACION_DEFINITIVA,E2_P8_D,etapa_viaje,p25_lugar_descenso,,
MOD_D_VIAJES2_BASEIMPUTACION_DEFINITIVA,E2_P9_D,,,,
MOD_D_VIAJES2_BASEIMPUTACION_DEFINITIVA,E3_P1_D,etapa_viaje,p18_id_medio_transporte,,
MOD_D_VIAJES2_BASEIMPUTACION_DEFINITIVA,E3_P2C_D,etapa_viaje,p19_camino_cuadras,,
MOD_D_VIAJES2_BASEIMPUTACION_DEFINITIVA,E3_P2M_D,etapa_viaje,p19_camino_minutos,,
MOD_D_VIAJES2_BASEIMPUTACION_DEFINITIVA,E3_P3_D,etapa_viaje,p21_tiempo_arrancar_vehic,,
MOD_D_VIAJES2_BASEIMPUTACION_DEFINITIVA,E3_P4_D,etapa_viaje,p22_cuanto_pago,,
MOD_D_VIAJES2_BASEIMPUTACION_DEFINITIVA,E3_P5_D,etapa_viaje,p20_Estacion_abordo_vehic,,
MOD_D_VIAJES2_BASEIMPUTACION_DEFINITIVA,E3_P6_D,etapa_viaje,p26a_propiedad_vehiculo,,
MOD_D_VIAJES2_BASEIMPUTACION_DEFINITIVA,E3_P7A_D,etapa_viaje,p26b_estacion_vehiculo,,
MOD_D_VIAJES2_BASEIMPUTACION_DEFINITIVA,E3_P7B_D,etapa_viaje,p26c_pago_estacionamiento,,
MOD_D_VIAJES2_BASEIMPUTACION_DEFINITIVA,E3_P7C_D,etapa_viaje,p26d_modalidad_pago,,
MOD_D_VIAJES2_BASEIMPUTACION_DEFINITIVA,E3_P8T_D,,,,
MOD_D_VIAJES2_BASEIMPUTACION_DEFINITIVA,E3_P8_D,etapa_viaje,p25_lugar_descenso,,
MOD_D_VIAJES2_BASEIMPUTACION_DEFINITIVA,E3_P9_D,,,,
MOD_D_VIAJES2_BASEIMPUTACION_DEFINITIVA,E4_P1_D,etapa_viaje,p18_id_medio_transporte,,
MOD_D_VIAJES2_BASEIMPUTACION_DEFINITIVA,E4_P2C_D,etapa_viaje,p19_camino_cuadras,,
MOD_D_VIAJES2_BASEIMPUTACION_DEFINITIVA,E4_P2M_D,etapa_viaje,p19_camino_minutos,,
MOD_D_VIAJES2_BASEIMPUTACION_DEFINITIVA,E4_P3_D,etapa_viaje,p21_tiempo_arrancar_vehic,,
MOD_D_VIAJES2_BASEIMPUTACION_DEFINITIVA,E4_P4_D,etapa_viaje,p22_cuanto_pago,,
MOD_D_VIAJES2_BASEIMPUTACION_DEFINITIVA,E4_P5_D,etapa_viaje,p20_Estacion_abordo_vehic,,
MOD_D_VIAJES2_BASEIMPUTACION_DEFINITIVA,E4_P6_D,etapa_viaje,p26a_propiedad_vehiculo,,
MOD_D_VIAJES2_BASEIMPUTACION_DEFINITIVA,E4_P7A_D,etapa_viaje,p26b_estacion_vehiculo,,
MOD_D_VIAJES2_BASEIMPUTACION_DEFINITIVA,E4_P7B_D,etapa_viaje,p26c_pago_estacionamiento,,
MOD_D_VIAJES2_BASEIMPUTACION_DEFINITIVA,E4_P7C_D,etapa_viaje,p26d_modalidad_pago,,
MOD_D_VIAJES2_BASEIMPUTACION_DEFINITIVA,E4_P8T_D,,,,
MOD_D_VIAJES2_BASEIMPUTACION_DEFINITIVA,E4_P8_D,etapa_viaje,p25_lugar_descenso,,
MOD_D_VIAJES2_BASEIMPUTACION_DEFINITIVA,E4_P9_D,,,,
MOD_D_VIAJES2_BASEIMPUTACION_DEFINITIVA,E5_P1_D,etapa_viaje,p18_id_medio_transporte,,
MOD_D_VIAJES2_BASEIMPUTACION_DEFINITIVA,E5_P2C_D,etapa_viaje,p19_camino_cuadras,,
MOD_D_VIAJES2_BASEIMPUTACION_DEFINITIVA,E5_P2M_D,etapa_viaje,p19_camino_minutos,,
MOD_D_VIAJES2_BASEIMPUTACION_DEFINITIVA,E5_P3_D,etapa_viaje,p21_tiempo_arrancar_vehic,,
MOD_D_VIAJES2_BASEIMPUTACION_DEFINITIVA,E5_P4_D,etapa_viaje,p22_cuanto_pago,,
MOD_D_VIAJES2_BASEIMPUTACION_DEFINITIVA,E5_P5_D,etapa_viaje,p20_Estacion_abordo_vehic,,
MOD_D_VIAJES2_BASEIMPUTACION_DEFINITIVA,E5_P6_D,etapa_viaje,p26a_propiedad_vehiculo,,
MOD_D_VIAJES2_BASEIMPUTACION_DEFINITIVA,E5_P7A_D,etapa_viaje,p26b_estacion_vehiculo,,
MOD_D_VIAJES2_BASEIMPUTACION_DEFINITIVA,E5_P7B_D,etapa_viaje,p26c_pago_estacionamiento,,
MOD_D_VIAJES2_BASEIMPUTACION_DEFINITIVA,E5_P7C_D,etapa_viaje,p26d_modalidad_pago,,
MOD_D_VIAJES2_BASEIMPUTACION_DEFINITIVA,E5_P8T_D,,,,
MOD_D_VIAJES2_BASEIMPUTACION_DEFINITIVA,E5_P8_D,etapa_viaje,p25_lugar_descenso,,
MOD_D_VIAJES2_BASEIMPUTACION_DEFINITIVA,E5_P9_D,,,,
MOD_D_VIAJES2_BASEIMPUTACION_DEFINITIVA,P15_D,viaje,p28_lugar_destino,,
MOD_D_VIAJES2_BASEIMPUTACION_DEFINITIVA,P15TD_D,,,,
MOD_D_VIAJES2_BASEIMPUTACION_DEFINITIVA,ZAT,,,,
MOD_D_VIAJES2_BASEIMPUTACION_DEFINITIVA,P16_D,viaje,p29_id_municipio,,
MOD_D_VIAJES2_BASEIMPUTACION_DEFINITIVA,P17C_D,viaje,p30_camino_cuadras,,
MOD_D_VIAJES2_BASEIMPUTACION_DEFINITIVA,P17M_D,viaje,p30_camino_minutos,,
MOD_D_VIAJES2_BASEIMPUTACION_DEFINITIVA,P18HF_D,viaje,EXTRACT(HOUR FROM p31_hora_llegada),,
MOD_D_VIAJES2_BASEIMPUTACION_DEFINITIVA,P18MF_D,viaje,EXTRACT(MINUTE FROM p31_hora_llegada),,
MOD_D_VIAJES2_BASEIMPUTACION_DEFINITIVA,P19HI_D,viaje,EXTRACT(HOUR FROM p36_hora_salida),,
MOD_D_VIAJES2_BASEIMPUTACION_DEFINITIVA,P19MI_D,viaje,EXTRACT(MINUTE FROM p36_hora_salida),,
MOD_D_VIAJES2_BASEIMPUTACION_DEFINITIVA,F_EXP,,f_exp,,